{
	"__ver": "devops:2",
	"_id": "UvQ4v4FoRX-tiRHc33taKg",
	"applies_to": "server",
	"business_object": {
		"_disp": "GitlabProject",
		"_id": "zhdLrhgiRFayf-X3uUdm4Q"
	},
	"doc": "If the next active milestone is past due, close out with given message.  \nIf enableMilestoneLabels is enabled in conf, delete the MS_ label associated w/ the closed milestone\n@param message",
	"is_static": false,
	"name": "closeNextActiveMilestone",
	"use_injection": true
}