{
	"__ver": "devops:8",
	"_id": "u8pqcexWTGyW76qcX_zMVg",
	"build_config": {
		"exclude": [
			"GitlabProject",
			"User",
			{
				"class_name": "Config",
				"condition": {
					"key": "sys.user.preferences"
				}
			}
		]
	},
	"changelog": [
	],
	"dependencies": {
		"npm": {
			"gitlab": "14.X",
			"simple-git": "2.X"
		}
	},
	"description": "Addon functionality for connecting Noonian packages to git projects.\nUtilities for git, gitlab api, ...",
	"key": "dev.devops",
	"major_version": 0,
	"manifest": {
		"BusinessObjectDef": {
			"zhdLrhgiRFayf-X3uUdm4Q": "devops:4"
		},
		"CodeModule": {
			"BpcyLh84SragOJUEkQfUfQ": "devops:26"
		},
		"Config": {
			"-QEMC_DXR2meOqg_HZqIEQ": "devops:1",
			"ob3CX0faThi1CuXLXru5yg": "devops:11"
		},
		"LabelGroup": {
			"NaAfHv90T1Kyv4-9oTNvRQ": "devops:3"
		},
		"MemberFunction": {
			"6koEjhFsTj2QZtL05gaQeA": "devops:3",
			"81c_RQOyQByvrzJjqHdKiw": "devops:2",
			"ECkIA3bjRcyD9Vi7v7xQ6g": "devops:4",
			"H7kb9r0dSiyVD-YJSYVRQg": "devops:4",
			"JguFcKh_QIa-AhHC4wsaag": "devops:5",
			"NBXP5-n7Sl6ZaZ4PrDrDkA": "devops:2",
			"O8jKZauJT3-czlrcE08n7Q": "devops:2",
			"Pl_LC5vXTJO-BoK48DPM1A": "devops:3",
			"UvQ4v4FoRX-tiRHc33taKg": "devops:2",
			"YxAphMipQpuC5_hj2FbDRg": "devops:1",
			"jyU-WG04SIqtizOPctySdw": "devops:2",
			"nuGHN_jJQOuVW3vvU_opjg": "devops:1",
			"tG9ntMz2Sd-gl5z9QvAE8A": "devops:3",
			"xY01KfnVQjKCdiSl1__iKg": "devops:2",
			"ydqwbJh_QSGz4xGpNqTlUw": "devops:2"
		},
		"Role": {
			"YzQ5MqmuSLmOaNZSh6o9pw": "instance-mgr:2|devops:1"
		},
		"WebService": {
			"CCGenVqySN2IHxv0GMOcjA": "devops:2",
			"EKWn6QxSTtChMrCWWcgfVw": "devops:1",
			"JrwAh7mGQtO9reloPrs0Gg": "devops:2",
			"fgyD2QjzSxuHE8EUzCZ10A": "devops:2",
			"hCPEv7FrSPOkW32vNprm6g": "devops:7",
			"pBz7nfO2TvGKdf7yvw9Egw": "devops:1"
		}
	},
	"minor_version": 2,
	"name": "Noonian DevOps",
	"package_file": {
		"attachment_id": "Kfu-qUHtRJyTjJfNal4GfA",
		"filename": "dev.devops.0.2.0.json",
		"type": "application/json"
	},
	"version": "0.2.0"
}